{
  "movieWatchaRankWithQuery": [
    {
      "id": 1,
      "rank": 1,
      "title": "웡카",
      "year": "2023",
      "country": "미국",
      "thumbnailUrl": "https://an2-img.amz.wtchn.net/image/v2/Vnn_KYM-QxlK00ydZiSpKA.jpg?jwt=ZXlKaGJHY2lPaUpJVXpJMU5pSjkuZXlKdmNIUnpJanBiSW1SZk5Ea3dlRGN3TUhFNE1DSmRMQ0p3SWpvaUwzWXlMM04wYjNKbEwybHRZV2RsTHpFM01ESXdNakl6TURJek1qQXdOVGs1TnpFaWZRLnZXakM5cEZMT2hzLXhnOXl3dGpsdU1RVHpZSUw2NFRBazRsZ3RiUFdhdXc"
    },
    {
      "id": 2,
      "rank": 1,
      "title": "톡투미",
      "year": "2024",
      "country": "미국",
      "thumbnailUrl": "https://an2-img.amz.wtchn.net/image/v2/5Ml7be_uJ_ybHvmwPhhx-Q.jpg?jwt=ZXlKaGJHY2lPaUpJVXpJMU5pSjkuZXlKdmNIUnpJanBiSW1SZk5Ea3dlRGN3TUhFNE1DSmRMQ0p3SWpvaUwzWXlMM04wYjNKbEwybHRZV2RsTHpFM01EQXhPREUwTlRBeU9Ua3pNamcxTVRVaWZRLmZ0SUJPelV0VldRU1hWelJQSFg5Mml0TU8tcF9BUGQ3LUgtSnFrTE5STGs"
    },
    {
      "id": 3,
      "rank": 1,
      "title": "서울의 봄",
      "year": "2023",
      "country": "한국",
      "thumbnailUrl": "https://an2-img.amz.wtchn.net/image/v2/y8zw23wQG88i2Y3lNWetpQ.jpg?jwt=ZXlKaGJHY2lPaUpJVXpJMU5pSjkuZXlKdmNIUnpJanBiSW1SZk5Ea3dlRGN3TUhFNE1DSmRMQ0p3SWpvaUwzWXlMM04wYjNKbEwybHRZV2RsTHpFMk9UazFPVEkwTmpnM016QTVNamd6TWpFaWZRLjFQU194eWZtVWFUZG5KUmhsY2V5RHVlVnZXVVhEQ2hhYlhnY01KZ1Fka1k"
    }
  ],

  "movieBoxOfficeRank": [
    {
      "id": 1,
      "rank": 1,
      "title": "웡카",
      "year": "2023",
      "country": "미국",
      "thumbnailUrl": "https://an2-img.amz.wtchn.net/image/v2/Vnn_KYM-QxlK00ydZiSpKA.jpg?jwt=ZXlKaGJHY2lPaUpJVXpJMU5pSjkuZXlKdmNIUnpJanBiSW1SZk5Ea3dlRGN3TUhFNE1DSmRMQ0p3SWpvaUwzWXlMM04wYjNKbEwybHRZV2RsTHpFM01ESXdNakl6TURJek1qQXdOVGs1TnpFaWZRLnZXakM5cEZMT2hzLXhnOXl3dGpsdU1RVHpZSUw2NFRBazRsZ3RiUFdhdXc"
    },
    {
      "id": 1,
      "rank": 1,
      "title": "웡카",
      "year": "2023",
      "country": "미국",
      "thumbnailUrl": "https://an2-img.amz.wtchn.net/image/v2/Vnn_KYM-QxlK00ydZiSpKA.jpg?jwt=ZXlKaGJHY2lPaUpJVXpJMU5pSjkuZXlKdmNIUnpJanBiSW1SZk5Ea3dlRGN3TUhFNE1DSmRMQ0p3SWpvaUwzWXlMM04wYjNKbEwybHRZV2RsTHpFM01ESXdNakl6TURJek1qQXdOVGs1TnpFaWZRLnZXakM5cEZMT2hzLXhnOXl3dGpsdU1RVHpZSUw2NFRBazRsZ3RiUFdhdXc"
    },
    {
      "id": 1,
      "rank": 1,
      "title": "웡카",
      "year": "2023",
      "country": "미국",
      "thumbnailUrl": "https://an2-img.amz.wtchn.net/image/v2/Vnn_KYM-QxlK00ydZiSpKA.jpg?jwt=ZXlKaGJHY2lPaUpJVXpJMU5pSjkuZXlKdmNIUnpJanBiSW1SZk5Ea3dlRGN3TUhFNE1DSmRMQ0p3SWpvaUwzWXlMM04wYjNKbEwybHRZV2RsTHpFM01ESXdNakl6TURJek1qQXdOVGs1TnpFaWZRLnZXakM5cEZMT2hzLXhnOXl3dGpsdU1RVHpZSUw2NFRBazRsZ3RiUFdhdXc"
    },
    {
      "id": 1,
      "rank": 1,
      "title": "웡카",
      "year": "2023",
      "country": "미국",
      "thumbnailUrl": "https://an2-img.amz.wtchn.net/image/v2/Vnn_KYM-QxlK00ydZiSpKA.jpg?jwt=ZXlKaGJHY2lPaUpJVXpJMU5pSjkuZXlKdmNIUnpJanBiSW1SZk5Ea3dlRGN3TUhFNE1DSmRMQ0p3SWpvaUwzWXlMM04wYjNKbEwybHRZV2RsTHpFM01ESXdNakl6TURJek1qQXdOVGs1TnpFaWZRLnZXakM5cEZMT2hzLXhnOXl3dGpsdU1RVHpZSUw2NFRBazRsZ3RiUFdhdXc"
    },
    {
      "id": 1,
      "rank": 1,
      "title": "웡카",
      "year": "2023",
      "country": "미국",
      "thumbnailUrl": "https://an2-img.amz.wtchn.net/image/v2/Vnn_KYM-QxlK00ydZiSpKA.jpg?jwt=ZXlKaGJHY2lPaUpJVXpJMU5pSjkuZXlKdmNIUnpJanBiSW1SZk5Ea3dlRGN3TUhFNE1DSmRMQ0p3SWpvaUwzWXlMM04wYjNKbEwybHRZV2RsTHpFM01ESXdNakl6TURJek1qQXdOVGs1TnpFaWZRLnZXakM5cEZMT2hzLXhnOXl3dGpsdU1RVHpZSUw2NFRBazRsZ3RiUFdhdXc"
    }
  ],

  "movieUpcommingRelease": [
    {
      "id": 2,
      "rank": 1,
      "title": "톡투미",
      "year": "2024",
      "country": "미국",
      "thumbnailUrl": "https://an2-img.amz.wtchn.net/image/v2/5Ml7be_uJ_ybHvmwPhhx-Q.jpg?jwt=ZXlKaGJHY2lPaUpJVXpJMU5pSjkuZXlKdmNIUnpJanBiSW1SZk5Ea3dlRGN3TUhFNE1DSmRMQ0p3SWpvaUwzWXlMM04wYjNKbEwybHRZV2RsTHpFM01EQXhPREUwTlRBeU9Ua3pNamcxTVRVaWZRLmZ0SUJPelV0VldRU1hWelJQSFg5Mml0TU8tcF9BUGQ3LUgtSnFrTE5STGs"
    },
    {
      "id": 2,
      "rank": 1,
      "title": "톡투미",
      "year": "2024",
      "country": "미국",
      "thumbnailUrl": "https://an2-img.amz.wtchn.net/image/v2/5Ml7be_uJ_ybHvmwPhhx-Q.jpg?jwt=ZXlKaGJHY2lPaUpJVXpJMU5pSjkuZXlKdmNIUnpJanBiSW1SZk5Ea3dlRGN3TUhFNE1DSmRMQ0p3SWpvaUwzWXlMM04wYjNKbEwybHRZV2RsTHpFM01EQXhPREUwTlRBeU9Ua3pNamcxTVRVaWZRLmZ0SUJPelV0VldRU1hWelJQSFg5Mml0TU8tcF9BUGQ3LUgtSnFrTE5STGs"
    },
    {
      "id": 2,
      "rank": 1,
      "title": "톡투미",
      "year": "2024",
      "country": "미국",
      "thumbnailUrl": "https://an2-img.amz.wtchn.net/image/v2/5Ml7be_uJ_ybHvmwPhhx-Q.jpg?jwt=ZXlKaGJHY2lPaUpJVXpJMU5pSjkuZXlKdmNIUnpJanBiSW1SZk5Ea3dlRGN3TUhFNE1DSmRMQ0p3SWpvaUwzWXlMM04wYjNKbEwybHRZV2RsTHpFM01EQXhPREUwTlRBeU9Ua3pNamcxTVRVaWZRLmZ0SUJPelV0VldRU1hWelJQSFg5Mml0TU8tcF9BUGQ3LUgtSnFrTE5STGs"
    }
  ],

  "movieWatchaRank": [
    {
      "id": 3,
      "rank": 1,
      "title": "서울의 봄",
      "year": "2023",
      "country": "한국",
      "thumbnailUrl": "https://an2-img.amz.wtchn.net/image/v2/y8zw23wQG88i2Y3lNWetpQ.jpg?jwt=ZXlKaGJHY2lPaUpJVXpJMU5pSjkuZXlKdmNIUnpJanBiSW1SZk5Ea3dlRGN3TUhFNE1DSmRMQ0p3SWpvaUwzWXlMM04wYjNKbEwybHRZV2RsTHpFMk9UazFPVEkwTmpnM016QTVNamd6TWpFaWZRLjFQU194eWZtVWFUZG5KUmhsY2V5RHVlVnZXVVhEQ2hhYlhnY01KZ1Fka1k"
    },
    {
      "id": 3,
      "rank": 1,
      "title": "서울의 봄",
      "year": "2023",
      "country": "한국",
      "thumbnailUrl": "https://an2-img.amz.wtchn.net/image/v2/y8zw23wQG88i2Y3lNWetpQ.jpg?jwt=ZXlKaGJHY2lPaUpJVXpJMU5pSjkuZXlKdmNIUnpJanBiSW1SZk5Ea3dlRGN3TUhFNE1DSmRMQ0p3SWpvaUwzWXlMM04wYjNKbEwybHRZV2RsTHpFMk9UazFPVEkwTmpnM016QTVNamd6TWpFaWZRLjFQU194eWZtVWFUZG5KUmhsY2V5RHVlVnZXVVhEQ2hhYlhnY01KZ1Fka1k"
    },
    {
      "id": 3,
      "rank": 1,
      "title": "서울의 봄",
      "year": "2023",
      "country": "한국",
      "thumbnailUrl": "https://an2-img.amz.wtchn.net/image/v2/y8zw23wQG88i2Y3lNWetpQ.jpg?jwt=ZXlKaGJHY2lPaUpJVXpJMU5pSjkuZXlKdmNIUnpJanBiSW1SZk5Ea3dlRGN3TUhFNE1DSmRMQ0p3SWpvaUwzWXlMM04wYjNKbEwybHRZV2RsTHpFMk9UazFPVEkwTmpnM016QTVNamd6TWpFaWZRLjFQU194eWZtVWFUZG5KUmhsY2V5RHVlVnZXVVhEQ2hhYlhnY01KZ1Fka1k"
    },
    {
      "id": 3,
      "rank": 1,
      "title": "서울의 봄",
      "year": "2023",
      "country": "한국",
      "thumbnailUrl": "https://an2-img.amz.wtchn.net/image/v2/y8zw23wQG88i2Y3lNWetpQ.jpg?jwt=ZXlKaGJHY2lPaUpJVXpJMU5pSjkuZXlKdmNIUnpJanBiSW1SZk5Ea3dlRGN3TUhFNE1DSmRMQ0p3SWpvaUwzWXlMM04wYjNKbEwybHRZV2RsTHpFMk9UazFPVEkwTmpnM016QTVNamd6TWpFaWZRLjFQU194eWZtVWFUZG5KUmhsY2V5RHVlVnZXVVhEQ2hhYlhnY01KZ1Fka1k"
    },
    {
      "id": 3,
      "rank": 1,
      "title": "서울의 봄",
      "year": "2023",
      "country": "한국",
      "thumbnailUrl": "https://an2-img.amz.wtchn.net/image/v2/y8zw23wQG88i2Y3lNWetpQ.jpg?jwt=ZXlKaGJHY2lPaUpJVXpJMU5pSjkuZXlKdmNIUnpJanBiSW1SZk5Ea3dlRGN3TUhFNE1DSmRMQ0p3SWpvaUwzWXlMM04wYjNKbEwybHRZV2RsTHpFMk9UazFPVEkwTmpnM016QTVNamd6TWpFaWZRLjFQU194eWZtVWFUZG5KUmhsY2V5RHVlVnZXVVhEQ2hhYlhnY01KZ1Fka1k"
    }
  ],

  "tvKoreanRank": [
    {
      "id": 4,
      "rank": 1,
      "title": "살인자ㅇ난감",
      "year": "2024",
      "country": "한국",
      "thumbnailUrl": "https://an2-img.amz.wtchn.net/image/v2/JiqYuHz-6lQfxHVspxm7Bw.jpg?jwt=ZXlKaGJHY2lPaUpJVXpJMU5pSjkuZXlKdmNIUnpJanBiSW1SZk5Ea3dlRGN3TUhFNE1DSmRMQ0p3SWpvaUwzWXlMM04wYjNKbEwybHRZV2RsTHpFME5qZzNOelU0TVRVMk1qRXpNemtpZlEuOTNSVlVnLWJwSjQxRGNrSVFzbU5qNDFIQU0yMVpWaF9JZTVxZTFMdnFNcw"
    },
    {
      "id": 4,
      "rank": 1,
      "title": "살인자ㅇ난감",
      "year": "2024",
      "country": "한국",
      "thumbnailUrl": "https://an2-img.amz.wtchn.net/image/v2/JiqYuHz-6lQfxHVspxm7Bw.jpg?jwt=ZXlKaGJHY2lPaUpJVXpJMU5pSjkuZXlKdmNIUnpJanBiSW1SZk5Ea3dlRGN3TUhFNE1DSmRMQ0p3SWpvaUwzWXlMM04wYjNKbEwybHRZV2RsTHpFME5qZzNOelU0TVRVMk1qRXpNemtpZlEuOTNSVlVnLWJwSjQxRGNrSVFzbU5qNDFIQU0yMVpWaF9JZTVxZTFMdnFNcw"
    },
    {
      "id": 4,
      "rank": 1,
      "title": "살인자ㅇ난감",
      "year": "2024",
      "country": "한국",
      "thumbnailUrl": "https://an2-img.amz.wtchn.net/image/v2/JiqYuHz-6lQfxHVspxm7Bw.jpg?jwt=ZXlKaGJHY2lPaUpJVXpJMU5pSjkuZXlKdmNIUnpJanBiSW1SZk5Ea3dlRGN3TUhFNE1DSmRMQ0p3SWpvaUwzWXlMM04wYjNKbEwybHRZV2RsTHpFME5qZzNOelU0TVRVMk1qRXpNemtpZlEuOTNSVlVnLWJwSjQxRGNrSVFzbU5qNDFIQU0yMVpWaF9JZTVxZTFMdnFNcw"
    },
    {
      "id": 4,
      "rank": 1,
      "title": "살인자ㅇ난감",
      "year": "2024",
      "country": "한국",
      "thumbnailUrl": "https://an2-img.amz.wtchn.net/image/v2/JiqYuHz-6lQfxHVspxm7Bw.jpg?jwt=ZXlKaGJHY2lPaUpJVXpJMU5pSjkuZXlKdmNIUnpJanBiSW1SZk5Ea3dlRGN3TUhFNE1DSmRMQ0p3SWpvaUwzWXlMM04wYjNKbEwybHRZV2RsTHpFME5qZzNOelU0TVRVMk1qRXpNemtpZlEuOTNSVlVnLWJwSjQxRGNrSVFzbU5qNDFIQU0yMVpWaF9JZTVxZTFMdnFNcw"
    },
    {
      "id": 4,
      "rank": 1,
      "title": "살인자ㅇ난감",
      "year": "2024",
      "country": "한국",
      "thumbnailUrl": "https://an2-img.amz.wtchn.net/image/v2/JiqYuHz-6lQfxHVspxm7Bw.jpg?jwt=ZXlKaGJHY2lPaUpJVXpJMU5pSjkuZXlKdmNIUnpJanBiSW1SZk5Ea3dlRGN3TUhFNE1DSmRMQ0p3SWpvaUwzWXlMM04wYjNKbEwybHRZV2RsTHpFME5qZzNOelU0TVRVMk1qRXpNemtpZlEuOTNSVlVnLWJwSjQxRGNrSVFzbU5qNDFIQU0yMVpWaF9JZTVxZTFMdnFNcw"
    }
  ],

  "tvAmericanRank": [
    {
      "id": 5,
      "rank": 1,
      "title": "더 보이즈 시즌 1",
      "year": "2019",
      "country": "미국",
      "thumbnailUrl": "https://an2-img.amz.wtchn.net/image/v2/imbjY58XvgXekBXf5t69ww.jpg?jwt=ZXlKaGJHY2lPaUpJVXpJMU5pSjkuZXlKdmNIUnpJanBiSW1SZk5Ea3dlRGN3TUhFNE1DSmRMQ0p3SWpvaUwzWXhMM1Y1YTNSck5XeG9aWHBxZUdWb2JIVmhkMjl6SW4wLlhCcHg0Z3U4RTF2WFpycWZtOFJ3RllzaXNjRUZvOTNPRlR2U1BEc3FuYjA"
    },
    {
      "id": 5,
      "rank": 1,
      "title": "더 보이즈 시즌 1",
      "year": "2019",
      "country": "미국",
      "thumbnailUrl": "https://an2-img.amz.wtchn.net/image/v2/imbjY58XvgXekBXf5t69ww.jpg?jwt=ZXlKaGJHY2lPaUpJVXpJMU5pSjkuZXlKdmNIUnpJanBiSW1SZk5Ea3dlRGN3TUhFNE1DSmRMQ0p3SWpvaUwzWXhMM1Y1YTNSck5XeG9aWHBxZUdWb2JIVmhkMjl6SW4wLlhCcHg0Z3U4RTF2WFpycWZtOFJ3RllzaXNjRUZvOTNPRlR2U1BEc3FuYjA"
    },
    {
      "id": 5,
      "rank": 1,
      "title": "더 보이즈 시즌 1",
      "year": "2019",
      "country": "미국",
      "thumbnailUrl": "https://an2-img.amz.wtchn.net/image/v2/imbjY58XvgXekBXf5t69ww.jpg?jwt=ZXlKaGJHY2lPaUpJVXpJMU5pSjkuZXlKdmNIUnpJanBiSW1SZk5Ea3dlRGN3TUhFNE1DSmRMQ0p3SWpvaUwzWXhMM1Y1YTNSck5XeG9aWHBxZUdWb2JIVmhkMjl6SW4wLlhCcHg0Z3U4RTF2WFpycWZtOFJ3RllzaXNjRUZvOTNPRlR2U1BEc3FuYjA"
    },
    {
      "id": 5,
      "rank": 1,
      "title": "더 보이즈 시즌 1",
      "year": "2019",
      "country": "미국",
      "thumbnailUrl": "https://an2-img.amz.wtchn.net/image/v2/imbjY58XvgXekBXf5t69ww.jpg?jwt=ZXlKaGJHY2lPaUpJVXpJMU5pSjkuZXlKdmNIUnpJanBiSW1SZk5Ea3dlRGN3TUhFNE1DSmRMQ0p3SWpvaUwzWXhMM1Y1YTNSck5XeG9aWHBxZUdWb2JIVmhkMjl6SW4wLlhCcHg0Z3U4RTF2WFpycWZtOFJ3RllzaXNjRUZvOTNPRlR2U1BEc3FuYjA"
    },
    {
      "id": 5,
      "rank": 1,
      "title": "더 보이즈 시즌 1",
      "year": "2019",
      "country": "미국",
      "thumbnailUrl": "https://an2-img.amz.wtchn.net/image/v2/imbjY58XvgXekBXf5t69ww.jpg?jwt=ZXlKaGJHY2lPaUpJVXpJMU5pSjkuZXlKdmNIUnpJanBiSW1SZk5Ea3dlRGN3TUhFNE1DSmRMQ0p3SWpvaUwzWXhMM1Y1YTNSck5XeG9aWHBxZUdWb2JIVmhkMjl6SW4wLlhCcHg0Z3U4RTF2WFpycWZtOFJ3RllzaXNjRUZvOTNPRlR2U1BEc3FuYjA"
    },
    {
      "id": 5,
      "rank": 1,
      "title": "더 보이즈 시즌 1",
      "year": "2019",
      "country": "미국",
      "thumbnailUrl": "https://an2-img.amz.wtchn.net/image/v2/imbjY58XvgXekBXf5t69ww.jpg?jwt=ZXlKaGJHY2lPaUpJVXpJMU5pSjkuZXlKdmNIUnpJanBiSW1SZk5Ea3dlRGN3TUhFNE1DSmRMQ0p3SWpvaUwzWXhMM1Y1YTNSck5XeG9aWHBxZUdWb2JIVmhkMjl6SW4wLlhCcHg0Z3U4RTF2WFpycWZtOFJ3RllzaXNjRUZvOTNPRlR2U1BEc3FuYjA"
    },
    {
      "id": 5,
      "rank": 1,
      "title": "더 보이즈 시즌 1",
      "year": "2019",
      "country": "미국",
      "thumbnailUrl": "https://an2-img.amz.wtchn.net/image/v2/imbjY58XvgXekBXf5t69ww.jpg?jwt=ZXlKaGJHY2lPaUpJVXpJMU5pSjkuZXlKdmNIUnpJanBiSW1SZk5Ea3dlRGN3TUhFNE1DSmRMQ0p3SWpvaUwzWXhMM1Y1YTNSck5XeG9aWHBxZUdWb2JIVmhkMjl6SW4wLlhCcHg0Z3U4RTF2WFpycWZtOFJ3RllzaXNjRUZvOTNPRlR2U1BEc3FuYjA"
    }
  ],

  "tvUpcommingRelease": [
    {
      "id": 6,
      "rank": 1,
      "title": "더 뉴 룩",
      "year": "2024",
      "country": "미국",
      "thumbnailUrl": "https://an2-img.amz.wtchn.net/image/v2/R2MMQcqVHM1wK5TdxNBNCg.jpg?jwt=ZXlKaGJHY2lPaUpJVXpJMU5pSjkuZXlKdmNIUnpJanBiSW1SZk5Ea3dlRGN3TUhFNE1DSmRMQ0p3SWpvaUwzWXlMM04wYjNKbEwybHRZV2RsTHpFM01EQXlNRFkwTURRMU9Ea3dNVFExTlRNaWZRLkJBUWF0SHZHcDFMY1VuVmNmNXhHTm8wNHV0UTJvcl9HeWMtWWwxYktBLUE"
    },
    {
      "id": 6,
      "rank": 1,
      "title": "더 뉴 룩",
      "year": "2024",
      "country": "미국",
      "thumbnailUrl": "https://an2-img.amz.wtchn.net/image/v2/R2MMQcqVHM1wK5TdxNBNCg.jpg?jwt=ZXlKaGJHY2lPaUpJVXpJMU5pSjkuZXlKdmNIUnpJanBiSW1SZk5Ea3dlRGN3TUhFNE1DSmRMQ0p3SWpvaUwzWXlMM04wYjNKbEwybHRZV2RsTHpFM01EQXlNRFkwTURRMU9Ea3dNVFExTlRNaWZRLkJBUWF0SHZHcDFMY1VuVmNmNXhHTm8wNHV0UTJvcl9HeWMtWWwxYktBLUE"
    },
    {
      "id": 6,
      "rank": 1,
      "title": "더 뉴 룩",
      "year": "2024",
      "country": "미국",
      "thumbnailUrl": "https://an2-img.amz.wtchn.net/image/v2/R2MMQcqVHM1wK5TdxNBNCg.jpg?jwt=ZXlKaGJHY2lPaUpJVXpJMU5pSjkuZXlKdmNIUnpJanBiSW1SZk5Ea3dlRGN3TUhFNE1DSmRMQ0p3SWpvaUwzWXlMM04wYjNKbEwybHRZV2RsTHpFM01EQXlNRFkwTURRMU9Ea3dNVFExTlRNaWZRLkJBUWF0SHZHcDFMY1VuVmNmNXhHTm8wNHV0UTJvcl9HeWMtWWwxYktBLUE"
    }
  ]
}
